\relax 
\providecommand\hyper@newdestlabel[2]{}
\providecommand\HyperFirstAtBeginDocument{\AtBeginDocument}
\HyperFirstAtBeginDocument{\ifx\hyper@anchor\@undefined
\global\let\oldcontentsline\contentsline
\gdef\contentsline#1#2#3#4{\oldcontentsline{#1}{#2}{#3}}
\global\let\oldnewlabel\newlabel
\gdef\newlabel#1#2{\newlabelxx{#1}#2}
\gdef\newlabelxx#1#2#3#4#5#6{\oldnewlabel{#1}{{#2}{#3}}}
\AtEndDocument{\ifx\hyper@anchor\@undefined
\let\contentsline\oldcontentsline
\let\newlabel\oldnewlabel
\fi}
\fi}
\global\let\hyper@last\relax 
\gdef\HyperFirstAtBeginDocument#1{#1}
\providecommand\HyField@AuxAddToFields[1]{}
\providecommand\HyField@AuxAddToCoFields[2]{}
\@writefile{toc}{\contentsline {section}{\numberline {1}Part 1 - Creating and Loading Datasets}{1}{section.1}}
\@writefile{toc}{\contentsline {section}{\numberline {2}Part 2 - Loading Datasets into Hadoop}{2}{section.2}}
\@writefile{lol}{\contentsline {lstlisting}{\numberline {1}Loading data to HDFS}{2}{lstlisting.1}}
\@writefile{toc}{\contentsline {section}{\numberline {3}Part 3 - Analytics Tasks using MapReduce Jobs}{2}{section.3}}
\@writefile{toc}{\contentsline {subsection}{\numberline {3.1}Task A}{2}{subsection.3.1}}
\@writefile{toc}{\contentsline {subsection}{\numberline {3.2}Task B}{3}{subsection.3.2}}
\@writefile{toc}{\contentsline {subsection}{\numberline {3.3}Task C}{3}{subsection.3.3}}
\@writefile{toc}{\contentsline {subsection}{\numberline {3.4}Task D}{5}{subsection.3.4}}
\@writefile{toc}{\contentsline {subsection}{\numberline {3.5}Task E}{5}{subsection.3.5}}
\@writefile{toc}{\contentsline {subsection}{\numberline {3.6}Task F}{6}{subsection.3.6}}
\@writefile{toc}{\contentsline {subsection}{\numberline {3.7}Task G}{6}{subsection.3.7}}
\@writefile{toc}{\contentsline {subsection}{\numberline {3.8}Task H}{7}{subsection.3.8}}
\@writefile{toc}{\contentsline {subsubsection}{\numberline {3.8.1}The first solution - Using a single MapReduce job}{7}{subsubsection.3.8.1}}
\@writefile{toc}{\contentsline {subsubsection}{\numberline {3.8.2}The second solution - using two MapReduce jobs}{8}{subsubsection.3.8.2}}
\@writefile{toc}{\contentsline {section}{\numberline {4}Part 4 - Analytics Tasks using Apache Pig}{9}{section.4}}
\@writefile{toc}{\contentsline {subsection}{\numberline {4.1}Task A}{9}{subsection.4.1}}
\@writefile{toc}{\contentsline {subsection}{\numberline {4.2}Task B}{9}{subsection.4.2}}
\@writefile{toc}{\contentsline {subsection}{\numberline {4.3}Task C}{10}{subsection.4.3}}
\@writefile{toc}{\contentsline {subsection}{\numberline {4.4}Task D}{10}{subsection.4.4}}
\@writefile{toc}{\contentsline {subsection}{\numberline {4.5}Task E}{10}{subsection.4.5}}
\@writefile{toc}{\contentsline {subsection}{\numberline {4.6}Task F}{10}{subsection.4.6}}
\@writefile{toc}{\contentsline {subsection}{\numberline {4.7}Task G}{10}{subsection.4.7}}
\@writefile{toc}{\contentsline {subsection}{\numberline {4.8}Task H}{10}{subsection.4.8}}
\@writefile{toc}{\contentsline {section}{\numberline {5}Team Member Background and Contributions}{10}{section.5}}
